Chapter 12 In-class activity: visualizing data with ggplot | GVSU CIS 331 - Data analysis tools and techniques (Winter 2023)
…
12.3 Making a boxplot

A boxplot (sometimes called a box and whiskers plot) displays the distribution of a continous variable.
An individual boxplot divides a distribution into quartiles and visualizes them in a standardized way.
For more information about the “anatomy” of a boxplot, see: https://clauswilke.com/dataviz/boxplots-violins.html#fig:boxplot-schematic

With ggplot, you can use geom_boxplot to create a boxplot.

For the next few challenge problems, we’ll make use of the mpg dataset.
Run ?mpg for more information about the mpg dataset.

mpg

## # A tibble: 234 × 11
##    manufacturer model      displ  year   cyl trans drv     cty   hwy fl    class
##    <chr>        <chr>      <dbl> <int> <int> <chr> <chr> <int> <int> <chr> <chr>
##  1 audi         a4           1.8  1999     4 auto… f        18    29 p     comp…
##  2 audi         a4           1.8  1999     4 manu… f        21    29 p     comp…
##  3 audi         a4           2    2008     4 manu… f        20    31 p     comp…
##  4 audi         a4           2    2008     4 auto… f        21    30 p     comp…
##  5 audi         a4           2.8  1999     6 auto… f        16    26 p     comp…
##  6 audi         a4           2.8  1999     6 manu… f        18    26 p     comp…
##  7 audi         a4           3.1  2008     6 auto… f        18    27 p     comp…
##  8 audi         a4 quattro   1.8  1999     4 manu… 4        18    26 p     comp…
##  9 audi         a4 quattro   1.8  1999     4 auto… 4        16    25 p     comp…
## 10 audi         a4 quattro   2    2008     4 manu… 4        20    28 p     comp…
## # … with 224 more rows
…
Change the color palatte

facet_wrap by manufacturer

Why are some of the facets missing boxes for some car classes?

12.4 Making a line graph

Now, let’s try making a line graph. For this we’ll use the storms dataset is loaded when you load the tidyverse packages.
Read more about the storms dataset by running ?storms.

storms

## # A tibble: 11,859 × 13
##    name   year month   day  hour   lat  long status        categ…¹  wind press…²
##    <chr> <dbl> <dbl> <int> <dbl> <dbl> <dbl> <chr>         <ord>   <int>   <int>
##  1 Amy    1975     6    27     0  27.5 -79   tropical dep… -1         25    1013
##  2 Amy    1975     6    27     6  28.5 -79   tropical dep… -1         25    1013
##  3 Amy    1975     6    27    12  29.5 -79   tropical dep… -1         25    1013
##  4 Amy    1975     6    27    18  30.5 -79   tropical dep… -1         25    1013
##  5 Amy    1975     6    28     0  31.5 -78.8 tropical dep… -1         25    1012
##  6 Amy    1975     6    28     6  32.4 -78.7 tropical dep… -1         25    1012
##  7 Amy    1975     6    28    12  33.3 -78   tropical dep… -1         25    1011
##  8 Amy    1975     6    28    18  34   -77   tropical dep… -1         30    1006
##  9 Amy    1975     6    29     0  34.4 -75.8 tropical sto… 0          35    1004
## 10 Amy    1975     6    29     6  34   -74.8 tropical sto… 0          40    1002
## # … with 11,849 more rows, 2 more variables:
## #   tropicalstorm_force_diameter <int>, hurricane_force_diameter <int>, and
## #   abbreviated variable names ¹​category, ²​pressure
…
Label your x and y axis

Add a title

Change the solid line to a dashed line

12.5 Making a bar plot

Next, we’ll make a bar plot. For this, we’ll try plotting the distribution of homeworlds of the human characters in the starwars dataset.
The starwars dataset is loaded into R when you load the tidyverse collection of packages.

starwars

## # A tibble: 87 × 14
##    name        height  mass hair_…¹ skin_…² eye_c…³ birth…⁴ sex   gender homew…⁵
##    <chr>        <int> <dbl> <chr>   <chr>   <chr>     <dbl> <chr> <chr>  <chr>  
##  1 Luke Skywa…    172    77 blond   fair    blue       19   male  mascu… Tatooi…
##  2 C-3PO          167    75 <NA>    gold    yellow    112   none  mascu… Tatooi…
##  3 R2-D2           96    32 <NA>    white,… red        33   none  mascu… Naboo  
##  4 Darth Vader    202   136 none    white   yellow     41.9 male  mascu… Tatooi…
##  5 Leia Organa    150    49 brown   light   brown      19   fema… femin… Aldera…
##  6 Owen Lars      178   120 brown,… light   blue       52   male  mascu… Tatooi…
##  7 Beru White…    165    75 brown   light   blue       47   fema… femin… Tatooi…
##  8 R5-D4           97    32 <NA>    white,… red        NA   none  mascu… Tatooi…
##  9 Biggs Dark…    183    84 black   light   brown      24   male  mascu… Tatooi…
## 10 Obi-Wan Ke…    182    77 auburn… fair    blue-g…    57   male  mascu… Stewjon
## # … with 77 more rows, 4 more variables: species <chr>, films <list>,
## #   vehicles <list>, starships <list>, and abbreviated variable names
## #   ¹​hair_color, ²​skin_color, ³​eye_color, ⁴​birth_year, ⁵​homeworld
…
